module gitea.slauson.io/blog/blog-ms

go 1.20

require (
	gitea.slauson.io/slausonio/go-prom v0.0.4
	gitea.slauson.io/slausonio/go-types v0.1.7
	gitea.slauson.io/slausonio/go-utils v0.1.0
	github.com/DATA-DOG/go-sqlmock v1.5.0
	github.com/gin-gonic/gin v1.9.1
)

require (
	github.com/beorn7/perks v1.0.1 // indirect
	github.com/cespare/xxhash/v2 v2.2.0 // indirect
	github.com/golang/protobuf v1.5.3 // indirect
	github.com/kr/text v0.2.0 // indirect
	github.com/matttproud/golang_protobuf_extensions v1.0.4 // indirect
	github.com/prometheus/client_golang v1.16.0 // indirect
	github.com/prometheus/client_model v0.4.0 // indirect
	github.com/prometheus/common v0.44.0 // indirect
	github.com/prometheus/procfs v0.11.0 // indirect
)

require (
	gitea.slauson.io/slausonio/sio-loki v0.0.6
	github.com/bytedance/sonic v1.9.1 // indirect
	github.com/chenzhuoyu/base64x v0.0.0-20221115062448-fe3a3abad311 // indirect
	github.com/davecgh/go-spew v1.1.1 // indirect
	github.com/gabriel-vasile/mimetype v1.4.2 // indirect
	github.com/gin-contrib/sse v0.1.0 // indirect
	github.com/go-playground/locales v0.14.1 // indirect
	github.com/go-playground/universal-translator v0.18.1 // indirect
	github.com/go-playground/validator/v10 v10.14.1 // indirect
	github.com/goccy/go-json v0.10.2 // indirect
	github.com/json-iterator/go v1.1.12 // indirect
	github.com/klauspost/cpuid/v2 v2.2.5 // indirect
	github.com/leodido/go-urn v1.2.4 // indirect
	github.com/lib/pq v1.10.9 // indirect
	github.com/mattn/go-isatty v0.0.19 // indirect
	github.com/modern-go/concurrent v0.0.0-20180306012644-bacd9c7ef1dd // indirect
	github.com/modern-go/reflect2 v1.0.2 // indirect
	github.com/pelletier/go-toml/v2 v2.0.8 // indirect
	github.com/pmezard/go-difflib v1.0.0 // indirect
	github.com/sirupsen/logrus v1.9.3
	github.com/stretchr/objx v0.5.0 // indirect
	github.com/stretchr/testify v1.8.4
	github.com/twitchyliquid64/golang-asm v0.15.1 // indirect
	github.com/ugorji/go/codec v1.2.11 // indirect
	golang.org/x/arch v0.3.0 // indirect
	golang.org/x/crypto v0.10.0 // indirect
	golang.org/x/net v0.11.0 // indirect
	golang.org/x/sys v0.9.0 // indirect
	golang.org/x/text v0.10.0 // indirect
	google.golang.org/protobuf v1.30.0 // indirect
	gopkg.in/yaml.v3 v3.0.1 // indirect
)
